{
  "metadata": [
    {
      "src": [
        {
          "files": [
            "Code/**/*.csproj"
          ],
          "cwd": "..",
          "exclude": [
            "**/obj/**",
            "**/bin/**",
            "_site/**"
          ]
        }
      ],"properties": {
          "TargetFramework": "net48"
      },
      "dest": "api",
      "filter": "filterConfig.yml",
      "disableGitFeatures": false,
      "disableDefaultFilter": false
    }
  ],
  "pdf": {
    "content": [
      {
        "files": [
          "api/**.yml"
        ],
        "exclude": [
          "**/toc.yml",
          "**/toc.md"
        ]
      },
      {
        "files": [
          "articles/**.md",
          "articles/**/toc.yml",
          "toc.yml",
          "*.md",
          "pdf/*"
        ],
        "exclude": [
          "**/bin/**",
          "**/obj/**",
          "_site_pdf/**",
          "**/toc.yml",
          "**/toc.md"
        ]
      },
      {
        "files": "pdf/toc.yml"
      }
    ],
    "resource": [
      {
        "files": [
          "articles/images/**"
        ],
        "exclude": [
          "**/bin/**",
          "**/obj/**",
          "_site_pdf/**"
        ]
      }
    ],
    "overwrite": [
      {
        "files": [
          "apidoc/**.md"
        ],
        "exclude": [
          "**/bin/**",
          "**/obj/**",
          "_site_pdf/**"
        ]
      }
    ],
    "wkhtmltopdf": {
      "additionalArguments": "--enable-local-file-access"
    },
    "dest": "_site_pdf",
    "markdownEngineName": "markdig",
    "globalMetadata": {
      "_appTitle": "Prozessbild/Process picture documentation",
      "_appFooter": "Copyright © 2021 Promess GmbH",
      "_appLogoPath": "images/PromessLogoWBg_resized.png"
    }
  }
}