﻿{
  "metadata": [
    {
      "src": [
        {
          "files": [
            "Code/**/*.csproj"
          ],
          "cwd": "..",
          "exclude": [
            "**/obj/**",
            "**/bin/**",
            "_site/**"
          ]
        }
      ],
      "dest": "api",
      "filter": "filterConfig.yml"
    }
  ],
  "build": {
    "content": [
      {
        "files": [
          "api/**.yml"
        ]
      },
      {
        "files": [
          "api/*.md",
          "articles/**.md",
          "articles/**/toc.yml",
          "toc.yml",
          "*.md"
        ],
        "exclude": [
          "obj/**",
          "_site/**"
        ]
      }
    ],
    "resource": [
      {
        "files": [
          "images/**",
          "articles/images/**"
        ],
        "exclude": [
          "obj/**",
          "_site/**"
        ]
      }
    ],
    "overwrite": [
      {
        "files": [
          "apidoc/**.md"
        ],
        "exclude": [
          "obj/**",
          "_site/**"
        ]
      }
    ],
    "dest": "_site",
    "template": [
      "default"
    ],
    "xrefService": [ "https://xref.docs.microsoft.com/query?uid={uid}" ],
    "postProcessors": [],
    "markdownEngineName": "markdig",
    "noLangKeyword": false,
    "keepFileLink": false,
    "cleanupCacheHistory": false,
    "disableGitFeatures": false,
    "globalMetadata": {
      "_appTitle": "Prozessbild/Process picture documentation",
      "_appFooter": "Copyright © 2021 Promess GmbH",
      "_appLogoPath": "images/PromessLogoWBg_resized.png"
    }
  },
  "pdf": {
    "content": [
      {
        "files": [
          "api/**.yml"
        ],
        "exclude": [
          "**/toc.yml",
          "**/toc.md"
        ]
      },
      {
        "files": [
          "articles/**.md",
          "articles/**/toc.yml",
          "toc.yml",
          "*.md",
          "pdf_full/*"
        ],
        "exclude": [
          "**/bin/**",
          "**/obj/**",
          "_site_pdf/**",
          "**/toc.yml",
          "**/toc.md"
        ]
      },
      {
        "files": "pdf_full/toc.yml"
      }
    ],
    "resource": [
      {
        "files": [
          "articles/images/**"
        ],
        "exclude": [
          "**/bin/**",
          "**/obj/**",
          "_site_pdf/**"
        ]
      }
    ],
    "overwrite": [
      {
        "files": [
          "apidoc/**.md"
        ],
        "exclude": [
          "**/bin/**",
          "**/obj/**",
          "_site_pdf/**"
        ]
      }
    ],
    "wkhtmltopdf": {
      "additionalArguments": "--enable-local-file-access"
    },
    "dest": "_site_pdf",
    "markdownEngineName": "markdig",
    "globalMetadata": {
      "_appTitle": "Prozessbild/Process picture documentation",
      "_appFooter": "Copyright © 2021 Promess GmbH",
      "_appLogoPath": "images/PromessLogoWBg_resized.png"
    }
  }
}